9,1,60,30,2,1,3,73,129,0,0,800,846,1
17,1,60,58,3,1,1,48,131,0,0,1000,1658,1
10,2,36,46,2,2,3,90,200,3000,0,2000,2985,2
0,4,48,36,2,1,2,45,130,750,0,1100,1511,2
2,1,60,25,1,1,1,46,107,0,0,1500,2189,2
5,2,60,22,1,1,1,45,324,10000,0,1100,1159,1
1,2,60,45,2,1,2,105,112,2000,500,600,1332,2
27,1,60,41,2,1,1,74,140,0,0,950,1497,1
2,1,60,25,1,1,1,46,107,0,0,1500,2189,2
5,2,60,22,1,1,1,45,324,10000,0,1100,1159,1
1,2,60,45,2,1,2,105,112,2000,500,600,1332,2
27,1,60,41,2,1,1,74,140,0,0,950,1497,1